Create a synthetic dataset of edge case inputs — edge_cases • osdc
…
    Usage

edge_cases()

    Value

    A named list of 9  tibble::tibble() objects, each representing a
different health register: bef, lmdb, lpr_adm, lpr_diag,
kontakter, diagnoser, sysi, sssy, and lab_forsker.

    Examples

edge_cases()
#> $bef
#> # A tibble: 23 × 3
#>    pnr                                     koen foed_dato
#>    <chr>                                  <int> <chr>    
#>  1 01_t1d_oipT_anyt1dT                        1 19800101 
#>  2 02_t2d_oipT_anyt1dF                        2 19810203 
#>  3 03_t2d_oipF_anyt1dF                        1 19750510 
#>  4 04_t1d_oipF_endoT_majt1dT_i180T_itwo3T     2 19601115 
#>  5 05_t2d_oipF_endoT_majt1dT_i180T_itwo3F     2 19510101 
#>  6 06_t2d_oipF_endoT_majt1dT_i180F_itwo3T     1 19880404 
#>  7 07_t2d_oipF_endoT_majt1dF_i180T_itwo3T     2 19530606 
#>  8 08_t1d_oipF_medT_majt1dT_i180T_itwo3T      1 19920808 
#>  9 09_t2d_oipF_medT_majt1dT_i180T_itwo3F      1 19930909 
#> 10 10_t2d_oipF_medT_majt1dT_i180F_itwo3T      1 19850707 
#> # ℹ 13 more rows
#> 
#> $lmdb
#> # A tibble: 55 × 6
#>    pnr                                    volume eksd     atc       apk indo   
#>    <chr>                                   <dbl> <chr>    <chr>   <dbl> <chr>  
#>  1 01_t1d_oipT_anyt1dT                        10 20200110 A10AB01     5 1234567
#>  2 01_t1d_oipT_anyt1dT                        10 20200410 A10AE01     5 1234568
#>  3 02_t2d_oipT_anyt1dF                        10 20110220 A10AB01     5 2345678
#>  4 02_t2d_oipT_anyt1dF                        10 20210520 A10AE01     5 2345679
#>  5 03_t2d_oipF_anyt1dF                        10 20180101 A10BA02     3 3456789
#>  6 03_t2d_oipF_anyt1dF                        10 20190301 A10AB01     3 3456780
#>  7 04_t1d_oipF_endoT_majt1dT_i180T_itwo3T     10 19980101 A10BA02     8 4567890
#>  8 04_t1d_oipF_endoT_majt1dT_i180T_itwo3T     10 20220101 A10BA02     2 4567890
#>  9 04_t1d_oipF_endoT_majt1dT_i180T_itwo3T     10 20220301 A10AB01     8 4567891
#> 10 05_t2d_oipF_endoT_majt1dT_i180T_itwo3F     10 20220101 A10BA02     5 5678901
#> # ℹ 45 more rows
#> 
#> $lpr_adm
#> # A tibble: 21 × 4
#>    pnr                                    c_spec recnum      d_inddto
#>    <chr>                                  <chr>  <chr>       <chr>   
#>  1 01_t1d_oipT_anyt1dT                    08     pnr01_rec01 20110515
#>  2 02_t2d_oipT_anyt1dF                    08     pnr02_rec01 20120616
#>  3 03_t2d_oipF_anyt1dF                    34     pnr03_rec01 20100717
#>  4 04_t1d_oipF_endoT_majt1dT_i180T_itwo3T 08     pnr04_rec01 19920120
#>  5 04_t1d_oipF_endoT_majt1dT_i180T_itwo3T 08     pnr04_rec02 20130120
#>  6 05_t2d_oipF_endoT_majt1dT_i180T_itwo3F 08     pnr05_rec01 20130221
#>  7 06_t2d_oipF_endoT_majt1dT_i180F_itwo3T 08     pnr06_rec01 20130322
#>  8 07_t2d_oipF_endoT_majt1dF_i180T_itwo3T 08     pnr07_rec01 20120423
#>  9 07_t2d_oipF_endoT_majt1dF_i180T_itwo3T 02     pnr07_rec02 20130423
#> 10 08_t1d_oipF_medT_majt1dT_i180T_itwo3T  01     pnr08_rec01 19920120
#> # ℹ 11 more rows
#> 
#> $lpr_diag
#> # A tibble: 29 × 3
#>    recnum      c_diag c_diagtype
#>    <chr>       <chr>  <chr>     
#>  1 pnr01_rec01 DE111  A         
#>  2 pnr02_rec01 DE110  A         
#>  3 pnr03_rec01 DE101  A         
#>  4 pnr04_rec01 24901  A         
#>  5 pnr04_rec02 DE105  A         
#>  6 pnr04_rec02 DE114  B         
#>  7 pnr05_rec01 250    A         
#>  8 pnr06_rec01 DE103  A         
#>  9 pnr07_rec01 DE115  A         
#> 10 pnr07_rec01 DE105  B         
#> # ℹ 19 more rows
…
#>  9 08_t1d_oipF_medT_majt1dT_i180T_it… pnr08_dw01    kardiologi        20230120  
#> 10 08_t1d_oipF_medT_majt1dT_i180T_it… pnr08_dw02    kardiologi        20240120  
#> 11 09_t2d_oipF_medT_majt1dT_i180T_it… pnr09_dw01    kardiologi        20240221  
#> 12 10_t2d_oipF_medT_majt1dT_i180F_it… pnr10_dw01    kardiologi        20240322  
#> 13 11_t2d_oipF_medT_majt1dF_i180T_it… pnr11_dw01    kardiologi        20230423  
#> 14 11_t2d_oipF_medT_majt1dF_i180T_it… pnr11_dw02    medicinsk endokr… 20240423  
#> 15 11_t2d_oipF_medT_majt1dF_i180T_it… pnr11_dw03    thoraxkirurgi     20240616  
#> 16 12_nodm_gldF_diagF_hba1cF_podF     pnr12_dw01    kardiologi        20210423  
#> 17 14_t2d_gldF_diagF_hba1cT_podF      pnr14_dw01    gynaekologi og o… 20240101  
#> 18 15_t2d_gldF_diagT_hba1cF_podF      pnr15_dw01    urologi           20230101  
#> 19 16_t2d_gldT_diagF_hba1cF_podF      pnr16_dw01    gynaekologi og o… 20240101  
#> 20 21_nodm_female_pregnancyT          pnr21_dw01    gynaekologi og o… 20240101  
#> 
#> $diagnoser
#> # A tibble: 29 × 4
#>    dw_ek_kontakt diagnosekode diagnosetype senere_afkraeftet
#>    <chr>         <chr>        <chr>        <chr>            
#>  1 pnr01_dw01    DE101        A            Nej              
#>  2 pnr02_dw01    DE102        A            Nej              
#>  3 pnr03_dw01    DE103        A            Nej              
#>  4 pnr04_dw01    DE104        A            Nej              
#>  5 pnr04_dw02    DE115        B            Nej              
#>  6 pnr04_dw02    DE119        B            Nej              
#>  7 pnr05_dw01    DE101        A            Nej              
#>  8 pnr06_dw01    DE102        A            Nej              
#>  9 pnr07_dw01    DE103        A            Nej              
#> 10 pnr07_dw01    DE109        B            Nej              
#> # ℹ 19 more rows
…
#>  7 10_t2d_oipF_medT_majt1dT_i180F_itwo3T        0 53825    1227  
#>  8 11_t2d_oipF_medT_majt1dF_i180T_itwo3T        0 12345    1234  
#>  9 12_nodm_gldF_diagF_hba1cF_podF               0 20001    2001  
#> 10 13_t2d_gldF_diagF_hba1cF_podT                0 54001    0801  
#> 11 14_t2d_gldF_diagF_hba1cT_podF                0 20002    2004  
#> 12 15_t2d_gldF_diagT_hba1cF_podF                0 20003    2005  
#> 13 16_t2d_gldT_diagF_hba1cF_podF                0 20004    2006  
#> 14 17_nodm_glp1a_dapa_empa                      0 20005    2007  
#> 15 18_t2d_male_pcosF                            0 20006    2008  
#> 16 19_nodm_female_u40_pcosT                     0 20007    2009  
#> 17 20_nodm_female_o40_pcosT                     0 20008    2010  
#> 18 21_nodm_female_pregnancyT                    0 20009    2011  
#> 
#> $lab_forsker
#> # A tibble: 24 × 4
#>    patient_cpr                            samplingdate analysiscode value
#>    <chr>                                  <chr>        <chr>        <dbl>
#>  1 01_t1d_oipT_anyt1dT                    20190101     NPU27300        50
#>  2 02_t2d_oipT_anyt1dF                    20190102     NPU27300        51
#>  3 03_t2d_oipF_anyt1dF                    20190101     NPU27300        52
#>  4 04_t1d_oipF_endoT_majt1dT_i180T_itwo3T 20190101     NPU27300        53
#>  5 05_t2d_oipF_endoT_majt1dT_i180T_itwo3F 20190101     NPU27300        54
#>  6 06_t2d_oipF_endoT_majt1dT_i180F_itwo3T 20190101     NPU27300        55
#>  7 07_t2d_oipF_endoT_majt1dF_i180T_itwo3T 20190101     NPU27300        56
#>  8 08_t1d_oipF_medT_majt1dT_i180T_itwo3T  20190101     NPU27300        57
#>  9 09_t2d_oipF_medT_majt1dT_i180T_itwo3F  20190101     NPU27300        58
#> 10 10_t2d_oipF_medT_majt1dT_i180F_itwo3T  20190101     NPU27300        59
#> # ℹ 14 more rows
…
