Getting started with osdc • osdc
…
The core of this package depends on the list of variables within
different registers that are needed in order to classify the diabetes
status of an individual. This can be found in the dataset:

variable_description
#> # A tibble: 39 × 6
#>    register_name  register_abbrev variable_name years_covered danish_description
#>    <chr>          <chr>           <chr>         <chr>         <chr>             
#>  1 cpr_registere… bef             pnr           1968_onward   pseudonymiseret_c…
#>  2 cpr_registere… bef             koen          1968_onward   koen              
#>  3 cpr_registere… bef             foed_dato     1968_onward   foedselsdato      
#>  4 laegemiddelst… lmdb            pnr           1995_onward   pseudonymiseret_c…
#>  5 laegemiddelst… lmdb            eksd          1995_onward   ekspeditionsdato  
#>  6 laegemiddelst… lmdb            atc           1995_onward   atc_kode_fuld     
#>  7 laegemiddelst… lmdb            volume        1995_onward   antal_standarddos…
#>  8 laegemiddelst… lmdb            apk           1995_onward   antal_pakker_koebt
#>  9 laegemiddelst… lmdb            indo          1995_onward   indikationskode_f…
#> 10 laegemiddelst… lmdb            name          1995_onward   praeparatnavn     
#> # ℹ 29 more rows
#> # ℹ 1 more variable: english_description <chr>
…
